rt_enss_trace.vcd
$date
     Mar 03, 2026       03:55:39
$end

$version
 SystemC 3.0.2-Accellera --- Mar  3 2026 02:32:54
$end

$timescale
     1 ps
$end

$scope module SystemC $end
$var wire    1  aaaaa  safe_mode       $end
$var wire   32  aaaab  running_task [31:0]  $end
$upscope $end
$enddefinitions  $end

$comment
All initial values are dumped below at time 0 sec = 0 timescale units.
$end

$dumpvars
0aaaaa
b1 aaaab
$end

#5000000000
b10 aaaab

#15000000000
b0 aaaab

#20000000000
b1 aaaab

#25000000000
b0 aaaab

#40000000000
b1 aaaab

#45000000000
b0 aaaab

#50000000000
b10 aaaab

#51000000000
1aaaaa

#60000000000
b0 aaaab

#61000000000
b1 aaaab

#66000000000
b0 aaaab

#80000000000
b1 aaaab

#85000000000
b0 aaaab

#100000000000
b1 aaaab

#105000000000
b10 aaaab

#115000000000
b0 aaaab

#120000000000
b1 aaaab

#125000000000
b0 aaaab

#140000000000
b1 aaaab

#145000000000
b0 aaaab

#150000000000
b10 aaaab

#160000000000
b0 aaaab

#161000000000
b1 aaaab

#166000000000
b0 aaaab

#180000000000
b1 aaaab

#185000000000
b0 aaaab

